2019-09-26T06:33:54+00:00 CRITICAL Uncaught Error: Call to undefined function ewc_get_cart_url() in /home/chatbot/public_html/edu-theraputics/wp-content/themes/esmarts/framework/modules/woocommerce/widgets/woocommerce-dropdown-cart/woocommerce-dropdown-cart.php:134
Stack trace:
#0 /home/chatbot/public_html/edu-theraputics/wp-includes/class-wp-hook.php(286): esmarts_elated_woocommerce_header_add_to_cart_fragment(Array)
#1 /home/chatbot/public_html/edu-theraputics/wp-includes/plugin.php(203): WP_Hook->apply_filters(Array, Array)
#2 /home/chatbot/public_html/edu-theraputics/wp-content/plugins/woocommerce/includes/class-wc-ajax.php(192): apply_filters('woocommerce_add...', Array)
#3 /home/chatbot/public_html/edu-theraputics/wp-includes/class-wp-hook.php(286): WC_AJAX::get_refreshed_fragments('')
#4 /home/chatbot/public_html/edu-theraputics/wp-includes/class-wp-hook.php(310): WP_Hook->apply_filters('', Array)
#5 /home/chatbot/public_html/edu-theraputics/wp-includes/plugin.php(453): WP_Hook->do_action(Array)
#6 /home/chatbot/public_html/edu-theraput in /home/chatbot/public_html/edu-theraputics/wp-content/themes/esmarts/framework/modules/woocommerce/widgets/woocommerce-dropdown-cart/woocommerce-dropdown-cart.php on line 134

2019-09-26T11:22:20+00:00 CRITICAL Uncaught Error: Call to undefined function ewc_get_cart_url() in /home/chatbot/public_html/edu-theraputics/wp-content/themes/esmarts/framework/modules/woocommerce/widgets/woocommerce-dropdown-cart/woocommerce-dropdown-cart.php:134
Stack trace:
#0 /home/chatbot/public_html/edu-theraputics/wp-includes/class-wp-hook.php(286): esmarts_elated_woocommerce_header_add_to_cart_fragment(Array)
#1 /home/chatbot/public_html/edu-theraputics/wp-includes/plugin.php(203): WP_Hook->apply_filters(Array, Array)
#2 /home/chatbot/public_html/edu-theraputics/wp-content/plugins/woocommerce/includes/class-wc-ajax.php(192): apply_filters('woocommerce_add...', Array)
#3 /home/chatbot/public_html/edu-theraputics/wp-includes/class-wp-hook.php(286): WC_AJAX::get_refreshed_fragments('')
#4 /home/chatbot/public_html/edu-theraputics/wp-includes/class-wp-hook.php(310): WP_Hook->apply_filters('', Array)
#5 /home/chatbot/public_html/edu-theraputics/wp-includes/plugin.php(453): WP_Hook->do_action(Array)
#6 /home/chatbot/public_html/edu-theraput in /home/chatbot/public_html/edu-theraputics/wp-content/themes/esmarts/framework/modules/woocommerce/widgets/woocommerce-dropdown-cart/woocommerce-dropdown-cart.php on line 134

2019-09-26T11:24:41+00:00 CRITICAL Uncaught Error: Call to undefined function ewc_get_cart_url() in /home/chatbot/public_html/edu-theraputics/wp-content/themes/esmarts/framework/modules/woocommerce/widgets/woocommerce-dropdown-cart/woocommerce-dropdown-cart.php:134
Stack trace:
#0 /home/chatbot/public_html/edu-theraputics/wp-includes/class-wp-hook.php(286): esmarts_elated_woocommerce_header_add_to_cart_fragment(Array)
#1 /home/chatbot/public_html/edu-theraputics/wp-includes/plugin.php(203): WP_Hook->apply_filters(Array, Array)
#2 /home/chatbot/public_html/edu-theraputics/wp-content/plugins/woocommerce/includes/class-wc-ajax.php(192): apply_filters('woocommerce_add...', Array)
#3 /home/chatbot/public_html/edu-theraputics/wp-includes/class-wp-hook.php(286): WC_AJAX::get_refreshed_fragments('')
#4 /home/chatbot/public_html/edu-theraputics/wp-includes/class-wp-hook.php(310): WP_Hook->apply_filters('', Array)
#5 /home/chatbot/public_html/edu-theraputics/wp-includes/plugin.php(453): WP_Hook->do_action(Array)
#6 /home/chatbot/public_html/edu-theraput in /home/chatbot/public_html/edu-theraputics/wp-content/themes/esmarts/framework/modules/woocommerce/widgets/woocommerce-dropdown-cart/woocommerce-dropdown-cart.php on line 134

2019-09-26T11:25:03+00:00 CRITICAL Uncaught Error: Call to undefined function ewc_get_cart_url() in /home/chatbot/public_html/edu-theraputics/wp-content/themes/esmarts/framework/modules/woocommerce/widgets/woocommerce-dropdown-cart/woocommerce-dropdown-cart.php:134
Stack trace:
#0 /home/chatbot/public_html/edu-theraputics/wp-includes/class-wp-hook.php(286): esmarts_elated_woocommerce_header_add_to_cart_fragment(Array)
#1 /home/chatbot/public_html/edu-theraputics/wp-includes/plugin.php(203): WP_Hook->apply_filters(Array, Array)
#2 /home/chatbot/public_html/edu-theraputics/wp-content/plugins/woocommerce/includes/class-wc-ajax.php(192): apply_filters('woocommerce_add...', Array)
#3 /home/chatbot/public_html/edu-theraputics/wp-includes/class-wp-hook.php(286): WC_AJAX::get_refreshed_fragments('')
#4 /home/chatbot/public_html/edu-theraputics/wp-includes/class-wp-hook.php(310): WP_Hook->apply_filters('', Array)
#5 /home/chatbot/public_html/edu-theraputics/wp-includes/plugin.php(453): WP_Hook->do_action(Array)
#6 /home/chatbot/public_html/edu-theraput in /home/chatbot/public_html/edu-theraputics/wp-content/themes/esmarts/framework/modules/woocommerce/widgets/woocommerce-dropdown-cart/woocommerce-dropdown-cart.php on line 134

2019-09-26T11:25:35+00:00 CRITICAL Uncaught Error: Call to undefined function ewc_get_cart_url() in /home/chatbot/public_html/edu-theraputics/wp-content/themes/esmarts/framework/modules/woocommerce/widgets/woocommerce-dropdown-cart/woocommerce-dropdown-cart.php:134
Stack trace:
#0 /home/chatbot/public_html/edu-theraputics/wp-includes/class-wp-hook.php(286): esmarts_elated_woocommerce_header_add_to_cart_fragment(Array)
#1 /home/chatbot/public_html/edu-theraputics/wp-includes/plugin.php(203): WP_Hook->apply_filters(Array, Array)
#2 /home/chatbot/public_html/edu-theraputics/wp-content/plugins/woocommerce/includes/class-wc-ajax.php(192): apply_filters('woocommerce_add...', Array)
#3 /home/chatbot/public_html/edu-theraputics/wp-includes/class-wp-hook.php(286): WC_AJAX::get_refreshed_fragments('')
#4 /home/chatbot/public_html/edu-theraputics/wp-includes/class-wp-hook.php(310): WP_Hook->apply_filters('', Array)
#5 /home/chatbot/public_html/edu-theraputics/wp-includes/plugin.php(453): WP_Hook->do_action(Array)
#6 /home/chatbot/public_html/edu-theraput in /home/chatbot/public_html/edu-theraputics/wp-content/themes/esmarts/framework/modules/woocommerce/widgets/woocommerce-dropdown-cart/woocommerce-dropdown-cart.php on line 134

